<svg xmlns="http://www.w3.org/2000/svg" width="16" height="10" viewBox="0 0 16 10">
    <g fill="#383C45" fill-rule="evenodd">
        <path d="M1 .9c0-.497.402-.9.893-.9h12.151c.494 0 .893.4.893.9 0 .497-.402.9-.893.9H1.894A.894.894 0 0 1 1 .9zM1 4.9c0-.497.402-.9.893-.9h12.151c.494 0 .893.4.893.9 0 .497-.402.9-.893.9H1.894A.894.894 0 0 1 1 4.9zM1 8.9c0-.497.402-.9.893-.9h12.151c.494 0 .893.4.893.9 0 .497-.402.9-.893.9H1.894A.894.894 0 0 1 1 8.9z"/>
    </g>
</svg>
