<?xml version="1.0" encoding="UTF-8"?>
<svg width="72px" height="50px" viewBox="0 0 72 50" version="1.1" xmlns="http://www.w3.org/2000/svg" xmlns:xlink="http://www.w3.org/1999/xlink">
    <!-- Generator: sketchtool 56.3 (101010) - https://sketch.com -->
    <title>288ECBEE-584F-4A88-9192-634D76F1369C</title>
    <desc>Created with sketchtool.</desc>
    <g id="desktop" stroke="none" stroke-width="1" fill="none" fill-rule="evenodd">
        <g id="иконки_меню_комнаты" transform="translate(-1058.000000, -50.000000)" fill="#9AA5B1" fill-rule="nonzero" stroke="#94A0AD" stroke-width="0.3">
            <g id="Group-16-Copy-4" transform="translate(1058.000000, 50.000000)">
                <g id="noun_Plate_1418227" transform="translate(9.000000, 3.000000)">
                    <g id="Group">
                        <path d="M9.86560262,0.00447030344 C10.1623427,0.0408436396 10.3812991,0.293268753 10.3696787,0.58559719 L10.3696787,9.60230605 C10.3696787,12.2096001 8.34922077,14.3729904 5.76098305,14.6566222 L5.76098305,20.3801078 C7.07114305,20.6437338 8.06533088,21.770056 8.06533088,23.1274088 L8.06533088,41.1608265 C8.06533088,42.7120949 6.77069066,43.978548 5.18489609,43.978548 C3.59910153,43.978548 2.30446131,42.7120949 2.30446131,41.1608265 L2.30446131,23.1274088 C2.30446131,21.770056 3.29864914,20.6437338 4.60880914,20.3801078 L4.60880914,14.6566222 C2.02057142,14.3729904 5.56282078e-05,12.2096001 5.56282078e-05,9.60230605 L5.56282078e-05,0.58559719 C-0.0028247246,0.382362873 0.106329689,0.193324502 0.285779366,0.0908685647 C0.465229044,-0.0115873721 0.68717184,-0.0115873721 0.866621518,0.0908685647 C1.0460712,0.193324502 1.15522561,0.382362873 1.1522874,0.58559719 L1.1522874,9.60230605 C1.1522874,11.6043535 2.64471555,13.2403227 4.60880914,13.5118947 L4.60880914,0.58559719 C4.60220091,0.420064843 4.67037354,0.260071116 4.79521007,0.148134523 C4.92004659,0.0361979298 5.08890353,-0.0163445514 5.25690696,0.00447030344 C5.553647,0.0408436396 5.77260342,0.293268753 5.76098305,0.58559719 L5.76098305,13.5118947 C7.72507664,13.2403227 9.21750479,11.6043535 9.21750479,9.60230605 L9.21750479,0.58559719 C9.21089656,0.420064843 9.27906919,0.260071116 9.40390572,0.148134523 C9.52874225,0.0361979298 9.69759919,-0.0163445514 9.86560262,0.00447030344 L9.86560262,0.00447030344 Z M47.8153309,0.0220528857 C49.3214739,0.0220528857 50.6508614,0.907155569 51.5598961,2.24100858 C52.4689308,3.57486159 53.0001135,5.37916139 53.0001135,7.34812884 C53.0001135,9.31709628 52.4689308,11.1038135 51.5598961,12.4376102 C50.768083,13.5994694 49.6601059,14.4430389 48.3914178,14.6389833 L48.3914178,20.3801078 C49.7015796,20.6437338 50.6957657,21.770056 50.6957657,23.1274088 L50.6957657,41.1608265 C50.6957657,42.7120949 49.4011272,43.978548 47.8153309,43.978548 C46.2295346,43.978548 44.9348961,42.7120949 44.9348961,41.1608265 L44.9348961,23.1274088 C44.9348961,21.770056 45.9290822,20.6437338 47.2392439,20.3801078 L47.2392439,14.6389833 C45.9705558,14.4430389 44.8625787,13.5994694 44.0707657,12.4376102 C43.161731,11.1038135 42.6305483,9.31709628 42.6305483,7.34812884 C42.6305483,5.37916139 43.161731,3.57486159 44.0707657,2.24100858 C44.9798003,0.907155569 46.3091878,0.0220528857 47.8153309,0.0220528857 Z M47.8153309,1.14914149 C46.7762065,1.14914149 45.8019087,1.76131967 45.0429124,2.87499592 C44.2839161,3.98867218 43.7827222,5.5822064 43.7827222,7.34812884 C43.7827222,9.11405127 44.2839161,10.6899466 45.0429124,11.8036228 C45.8019087,12.9173554 46.7762065,13.5471162 47.8153309,13.5471162 C48.8544552,13.5471162 49.8287531,12.9173554 50.5877494,11.8036228 C51.3467456,10.6899466 51.8479396,9.11405127 51.8479396,7.34812884 C51.8479396,5.5822064 51.3467456,3.98867218 50.5877494,2.87499592 C49.8287531,1.76131967 48.8544552,1.14914149 47.8153309,1.14914149 Z M26.5001135,6.78458453 C35.0837239,6.78458453 42.0544613,13.6035833 42.0544613,22.0003202 C42.0544613,30.3970176 35.0837245,37.2160164 26.5001135,37.2160164 C17.9165521,37.2160164 10.9457657,30.3970176 10.9457657,22.0003202 C10.9457657,13.6035833 17.9165526,6.78458453 26.5001135,6.78458453 Z M26.5001135,7.91167314 C18.5392404,7.91167314 12.0979396,14.2127184 12.0979396,22.0003202 C12.0979396,29.7878826 18.539241,36.0889278 26.5001135,36.0889278 C34.4610401,36.0889278 40.9022874,29.7878826 40.9022874,22.0003202 C40.9022874,14.2127184 34.4610407,7.91167314 26.5001135,7.91167314 Z M26.5001135,14.1106605 C30.9475924,14.1106605 34.5653309,17.6496793 34.5653309,22.0003202 C34.5653309,26.3509386 30.9475929,29.8899404 26.5001135,29.8899404 C22.052634,29.8899404 18.4348961,26.3509386 18.4348961,22.0003202 C18.4348961,17.6496793 22.0526346,14.1106605 26.5001135,14.1106605 Z M26.5001135,15.2377491 C22.6753178,15.2377491 19.58707,18.2588143 19.58707,22.0003202 C19.58707,25.7418035 22.6753184,28.7628518 26.5001135,28.7628518 C30.3249086,28.7628518 33.413157,25.7418035 33.413157,22.0003202 C33.413157,18.2588143 30.3249092,15.2377491 26.5001135,15.2377491 Z M47.8153309,21.4367759 C46.8479098,21.4367759 46.08707,22.1810488 46.08707,23.1274088 L46.08707,41.1608265 C46.08707,42.1071865 46.8479098,42.8514594 47.8153309,42.8514594 C48.782752,42.8514594 49.5435917,42.1071865 49.5435917,41.1608265 L49.5435917,23.1274088 C49.5435917,22.1810488 48.782752,21.4367759 47.8153309,21.4367759 Z M5.18489609,21.4367759 C4.21747327,21.4367759 3.45663522,22.1810488 3.45663522,23.1274088 L3.45663522,41.1608265 C3.45663522,42.1071865 4.21747327,42.8514594 5.18489609,42.8514594 C6.15231892,42.8514594 6.91315696,42.1071865 6.91315696,41.1608265 L6.91315696,23.1274088 C6.91315696,22.1810488 6.15231892,21.4367759 5.18489609,21.4367759 Z" id="Shape"></path>
                    </g>
                </g>
            </g>
        </g>
    </g>
</svg>