<?xml version="1.0" encoding="UTF-8"?>
<svg width="72px" height="50px" viewBox="0 0 72 50" version="1.1" xmlns="http://www.w3.org/2000/svg" xmlns:xlink="http://www.w3.org/1999/xlink">
    <!-- Generator: sketchtool 56.3 (101010) - https://sketch.com -->
    <title>52D69E84-6021-48DE-98AA-13267F4DA212</title>
    <desc>Created with sketchtool.</desc>
    <g id="desktop" stroke="none" stroke-width="1" fill="none" fill-rule="evenodd">
        <g id="иконки_меню_комнаты" transform="translate(-1618.000000, -140.000000)" fill="#7EDE44" fill-rule="nonzero" stroke="#7EDE44" stroke-width="0.2">
            <g id="Group-16-Copy-15" transform="translate(1618.000000, 140.000000)">
                <g id="noun_Flower_2789482" transform="translate(20.000000, 2.000000)">
                    <path d="M21.96,16.36 C23.86,15.62 25.87,14.27 27.66,12.47 C31.67,8.46 31.36,1.77 31.34,1.48 C31.33,1.23 31.12,1.02 30.87,1.01 C30.59,0.99 23.9,0.68 19.88,4.69 C18.09,6.48 16.73,8.49 15.99,10.39 C15.25,8.49 13.9,6.48 12.1,4.68 C8.09,0.68 1.4,0.99 1.12,1.01 C0.87,1.03 0.67,1.23 0.65,1.48 C0.63,1.76 0.31,8.45 4.34,12.47 C6.14,14.27 8.15,15.62 10.04,16.36 C8.14,17.1 6.13,18.45 4.34,20.25 C0.33,24.26 0.64,30.95 0.66,31.24 C0.67,31.49 0.88,31.7 1.13,31.71 C1.17,31.71 1.36,31.72 1.67,31.72 C3.39,31.72 8.71,31.43 12.12,28.03 C13.56,26.59 14.72,25.01 15.51,23.45 L15.51,42.5 C15.51,42.78 15.73,43 16.01,43 C16.29,43 16.51,42.78 16.51,42.5 L16.51,23.46 C17.29,25.01 18.45,26.59 19.9,28.03 C23.31,31.44 28.62,31.73 30.34,31.73 C30.65,31.73 30.84,31.72 30.89,31.72 C31.14,31.71 31.35,31.5 31.36,31.25 C31.38,30.97 31.7,24.28 27.67,20.26 C25.86,18.45 23.85,17.09 21.96,16.36 Z M20.6,5.4 C23.72,2.28 28.81,2.01 30.36,2 C30.35,3.55 30.08,8.64 26.96,11.76 C24.91,13.81 22.49,15.29 20.43,15.79 C20.3,14.97 19.95,14.24 19.44,13.63 L24.14,8.93 C24.34,8.73 24.34,8.42 24.14,8.22 C23.94,8.02 23.63,8.02 23.43,8.22 L18.72,12.93 C18.1,12.45 17.35,12.15 16.54,12.05 C17,9.97 18.5,7.49 20.6,5.4 Z M5.04,11.77 C1.92,8.64 1.65,3.56 1.64,2 C3.19,2 8.27,2.27 11.4,5.39 C13.49,7.48 14.99,9.95 15.46,12.05 C14.64,12.15 13.9,12.46 13.28,12.93 L8.57,8.22 C8.37,8.02 8.06,8.02 7.86,8.22 C7.66,8.42 7.66,8.73 7.86,8.93 L12.56,13.63 C12.05,14.24 11.7,14.98 11.57,15.8 C9.51,15.31 7.1,13.83 5.04,11.77 Z M11.4,27.32 C8.28,30.44 3.19,30.71 1.64,30.72 C1.65,29.17 1.92,24.08 5.04,20.96 C7.08,18.92 9.49,17.44 11.54,16.94 C11.62,17.8 11.94,18.58 12.43,19.22 L7.86,23.79 C7.66,23.99 7.66,24.3 7.86,24.5 C7.96,24.6 8.09,24.65 8.21,24.65 C8.33,24.65 8.47,24.6 8.56,24.5 L13.12,19.94 C13.75,20.47 14.53,20.83 15.39,20.94 C14.86,22.97 13.41,25.32 11.4,27.32 Z M16,20 C14.07,20 12.5,18.43 12.5,16.5 C12.5,14.57 14.07,13 16,13 C17.93,13 19.5,14.57 19.5,16.5 C19.5,18.43 17.93,20 16,20 Z M20.59,27.32 C18.6,25.33 17.15,23.01 16.6,20.94 C17.46,20.82 18.23,20.47 18.87,19.94 L23.43,24.5 C23.53,24.6 23.66,24.65 23.78,24.65 C23.9,24.65 24.04,24.6 24.13,24.5 C24.33,24.3 24.33,23.99 24.13,23.79 L19.56,19.22 C20.06,18.57 20.37,17.79 20.45,16.94 C22.5,17.44 24.9,18.91 26.95,20.96 C30.07,24.08 30.34,29.17 30.35,30.73 C28.81,30.71 23.72,30.45 20.59,27.32 Z" id="Shape"></path>
                </g>
            </g>
        </g>
    </g>
</svg>