<?xml version="1.0" encoding="UTF-8"?>
<svg width="72px" height="50px" viewBox="0 0 72 50" version="1.1" xmlns="http://www.w3.org/2000/svg" xmlns:xlink="http://www.w3.org/1999/xlink">
    <!-- Generator: sketchtool 56.3 (101010) - https://sketch.com -->
    <title>E6B41CEF-3398-4A44-BED7-FA2BC6ECA49B</title>
    <desc>Created with sketchtool.</desc>
    <g id="desktop" stroke="none" stroke-width="1" fill="none" fill-rule="evenodd">
        <g id="иконки_меню_комнаты" transform="translate(-386.000000, -140.000000)" fill="#7EDE44" fill-rule="nonzero" stroke="#FFFFFF" stroke-width="0.6">
            <g id="bath-tub-copy" transform="translate(386.000000, 140.000000)">
                <path d="M57.3640138,21.9245676 L17.2828389,21.9245676 L17.2828389,5.03036556 C17.2828389,3.88805297 18.3450205,2.88599307 19.5574125,2.88599307 L23.7459233,2.88599307 C24.9283484,2.88599307 25.8802442,3.84794051 25.8902958,5.02031396 C23.93634,5.51133928 22.2930445,7.31499074 22.2930445,9.21878243 L22.2930445,11.9042504 C22.2930445,12.4553974 22.7439573,12.9063103 23.2951044,12.9063103 L30.3092419,12.9063103 C30.8603889,12.9063103 31.3113018,12.4553974 31.3113018,11.9042504 L31.3113018,9.21887637 C31.3113018,7.28492988 29.778198,5.51133928 27.8944156,5.03036556 C27.8944156,2.74574038 26.040694,0.881967201 23.7460172,0.881967201 L19.5575064,0.881967201 C17.2428204,0.881967201 15.278813,2.78585283 15.278813,5.03036556 L15.278813,21.9245676 C13.6254659,21.914516 12.2827789,23.2572969 12.2727273,24.9106441 C12.2727273,25.7723574 12.6334576,26.5840005 13.2747872,27.1551568 L13.2747872,32.4057553 C13.2747872,36.4839803 15.0884902,39.9810914 18.0244027,42.255665 L16.3811071,45.5222469 C16.1305687,46.0132722 16.331037,46.6144894 16.83202,46.8649339 C17.3230453,47.1154724 17.9242625,46.915004 18.174707,46.414021 L19.7178623,43.3377619 C21.7419914,44.4199528 24.0065134,44.9810575 26.3011901,44.9610483 L46.3417306,44.9610483 C48.6364074,44.9810575 50.9009294,44.4199528 52.9250584,43.3377619 L54.4682138,46.414021 C54.7187522,46.9050464 55.3199694,47.1054208 55.8109008,46.8649339 C56.3019261,46.624447 56.5023005,46.0131783 56.2618136,45.5222469 L54.6185181,42.2456134 C57.5544305,39.9809975 59.3681336,36.4739287 59.3681336,32.3957037 L59.3681336,27.1451052 C59.9994116,26.5939582 60.3701935,25.782315 60.3701935,24.9306533 C60.3701935,23.2673485 59.0274125,21.9245676 57.3640138,21.9245676 Z M26.8923557,6.89413873 C28.0847384,6.89413873 29.3072759,8.06651218 29.3072759,9.21887637 L29.3072759,10.9022844 L24.2970703,10.9022844 L24.2970703,9.21887637 C24.2970703,8.10662464 25.6498089,6.89413873 26.8923557,6.89413873 Z M57.3640138,32.4058492 C57.3640138,38.4280724 52.6244499,42.9672619 46.3417306,42.9672619 L26.3010962,42.9672619 C20.018377,42.9672619 15.278813,38.4279784 15.278813,32.4058492 L15.278813,27.936833 L57.3640138,27.936833 L57.3640138,32.4058492 Z M57.3640138,25.9327132 L15.3088739,25.9327132 C14.8078909,25.9327132 14.3569781,25.5719829 14.2868047,25.0809576 C14.1966222,24.4597312 14.6775959,23.9285934 15.278813,23.9285934 L57.3339529,23.9285934 C57.8349359,23.9285934 58.2858488,24.2893237 58.3560221,24.780349 C58.4462047,25.4016694 57.9652309,25.9327132 57.3640138,25.9327132 Z" id="Shape"></path>
            </g>
        </g>
    </g>
</svg>