<?xml version="1.0" encoding="UTF-8"?>
<svg width="72px" height="50px" viewBox="0 0 72 50" version="1.1" xmlns="http://www.w3.org/2000/svg" xmlns:xlink="http://www.w3.org/1999/xlink">
    <!-- Generator: sketchtool 56.3 (101010) - https://sketch.com -->
    <title>0EFDA0E7-B19E-4ADF-9629-095E9009722B</title>
    <desc>Created with sketchtool.</desc>
    <g id="desktop" stroke="none" stroke-width="1" fill="none" fill-rule="evenodd">
        <g id="иконки_меню_комнаты" transform="translate(-1170.000000, -140.000000)" fill="#7EDE44" fill-rule="nonzero">
            <g id="Group-16-Copy-7" transform="translate(1170.000000, 140.000000)">
                <g id="noun_bookshelf_2655092" transform="translate(19.000000, 2.000000)">
                    <g id="Group">
                        <path d="M33.2765957,0 L0.723404255,0 C0.434042553,0 0.144680851,0.214285714 0.144680851,0.5 L0.144680851,44.4285714 C0.144680851,44.7142857 0.361702128,44.9285714 0.65106383,44.9285714 L33.2765957,44.9285714 C33.5659574,44.9285714 33.7829787,44.7142857 33.7829787,44.4285714 L33.7829787,0.5 C33.8553191,0.214285714 33.5659574,0 33.2765957,0 Z M32.7702128,43.9285714 L1.22978723,43.9285714 L1.22978723,1.07142857 L32.7702128,1.07142857 L32.7702128,43.9285714 Z" id="Shape"></path>
                        <path d="M4.26808511,41.5 C13.1659574,41.5 20.8340426,41.5 29.8042553,41.5 C30.093617,41.5 30.3106383,41.2857143 30.3106383,41 C30.3106383,27.7142857 30.3106383,17.2142857 30.3106383,4 C30.3106383,3.71428571 30.093617,3.5 29.8042553,3.5 L4.26808511,3.5 C3.9787234,3.5 3.76170213,3.71428571 3.76170213,4 C3.76170213,17.2142857 3.76170213,27.6428571 3.76170213,41 C3.6893617,41.2857143 3.9787234,41.5 4.26808511,41.5 Z M7.30638298,14.6428571 L9.69361702,8.14285714 L12.2978723,9.07142857 L9.9106383,15.5714286 L7.30638298,14.6428571 Z M12.8765957,10.4285714 L12.8765957,15.7142857 L10.9234043,15.7142857 L12.8765957,10.4285714 Z M17.7957447,13.1428571 L20.5446809,13.1428571 L20.5446809,15.7142857 L17.7957447,15.7142857 L17.7957447,13.1428571 Z M20.5446809,12.1428571 L17.7957447,12.1428571 L17.7957447,9.64285714 L20.5446809,9.64285714 L20.5446809,12.1428571 Z M16.7106383,9.07142857 L16.7106383,12.6428571 L16.7106383,15.7142857 L13.9617021,15.7142857 L13.9617021,7.35714286 L16.7106383,7.35714286 L16.7106383,9.07142857 Z M29.2255319,16.7142857 L29.2255319,28.2142857 L26.693617,28.2142857 L26.693617,19.4285714 C26.693617,19.1428571 26.4765957,18.9285714 26.187234,18.9285714 C21.9191489,18.9285714 18.5191489,18.9285714 14.7574468,18.9285714 C14.4680851,18.9285714 14.2510638,19.1428571 14.2510638,19.4285714 L14.2510638,28.2857143 L4.84680851,28.2857143 L4.84680851,16.7142857 C12.8765957,16.7142857 19.9659574,16.7142857 29.2255319,16.7142857 Z M19.0978723,28.2857143 L19.0978723,24.4285714 L21.8468085,24.4285714 L21.8468085,28.2857143 L19.0978723,28.2857143 Z M15.2638298,28.2857143 L15.2638298,19.9285714 L18.012766,19.9285714 C18.012766,22.7857143 18.012766,25.2857143 18.012766,28.2142857 C17.8680851,28.2857143 15.1914894,28.2857143 15.2638298,28.2857143 Z M19.0978723,19.9285714 L21.8468085,19.9285714 L21.8468085,23.3571429 L19.0978723,23.3571429 L19.0978723,19.9285714 Z M22.9319149,23.9285714 L22.9319149,20 L25.6808511,20 L25.6808511,28.2857143 L22.9319149,28.2857143 L22.9319149,23.9285714 Z M4.77446809,29.2857143 C7.81276596,29.2857143 13.4553191,29.2857143 16.493617,29.2857143 L16.493617,40.4285714 L4.77446809,40.4285714 L4.77446809,29.2857143 Z M29.2255319,40.5 L17.506383,40.5 L17.506383,29.2857143 C18.5914894,29.2857143 29.587234,29.2857143 29.2255319,29.2857143 L29.2255319,40.5 L29.2255319,40.5 Z M4.77446809,4.5 L29.2255319,4.5 L29.2255319,15.7142857 L21.5574468,15.7142857 L21.5574468,12.6428571 L21.5574468,9.07142857 C21.5574468,8.78571429 21.3404255,8.57142857 21.0510638,8.57142857 L17.7957447,8.57142857 L17.7957447,6.85714286 C17.7957447,6.57142857 17.5787234,6.35714286 17.2893617,6.35714286 L13.4553191,6.35714286 C13.1659574,6.35714286 12.9489362,6.57142857 12.9489362,6.85714286 L12.9489362,8.14285714 L9.6212766,6.92857143 C9.33191489,6.85714286 9.04255319,7 8.97021277,7.21428571 L6.2212766,14.7142857 C6.14893617,14.8571429 6.14893617,15 6.2212766,15.1428571 C6.29361702,15.2857143 6.36595745,15.3571429 6.5106383,15.4285714 L7.23404255,15.7142857 L4.84680851,15.7142857 L4.84680851,4.5 L4.77446809,4.5 Z" id="Shape"></path>
                        <path d="M20.906383,32.8571429 C19.8212766,32.8571429 18.8808511,33.7857143 18.8808511,34.8571429 C18.8808511,35.9285714 19.8212766,36.8571429 20.906383,36.8571429 C21.9914894,36.8571429 22.9319149,35.9285714 22.9319149,34.8571429 C22.9319149,33.7857143 22.0638298,32.8571429 20.906383,32.8571429 Z M20.906383,35.8571429 C20.4,35.8571429 19.9659574,35.4285714 19.9659574,34.9285714 C19.9659574,34.4285714 20.4,34 20.906383,34 C21.412766,34 21.8468085,34.4285714 21.8468085,34.9285714 C21.8468085,35.4285714 21.412766,35.8571429 20.906383,35.8571429 Z" id="Shape"></path>
                        <path d="M13.093617,32.8571429 C12.0085106,32.8571429 11.0680851,33.7857143 11.0680851,34.8571429 C11.0680851,35.9285714 12.0085106,36.8571429 13.093617,36.8571429 C14.1787234,36.8571429 15.1191489,35.9285714 15.1191489,34.8571429 C15.1191489,33.7857143 14.1787234,32.8571429 13.093617,32.8571429 Z M13.093617,35.8571429 C12.587234,35.8571429 12.1531915,35.4285714 12.1531915,34.9285714 C12.1531915,34.4285714 12.587234,34 13.093617,34 C13.6,34 14.0340426,34.4285714 14.0340426,34.9285714 C14.0340426,35.4285714 13.6,35.8571429 13.093617,35.8571429 Z" id="Shape"></path>
                    </g>
                </g>
            </g>
        </g>
    </g>
</svg>