<?xml version="1.0" encoding="UTF-8"?>
<svg width="72px" height="50px" viewBox="0 0 72 50" version="1.1" xmlns="http://www.w3.org/2000/svg" xmlns:xlink="http://www.w3.org/1999/xlink">
    <!-- Generator: sketchtool 56.3 (101010) - https://sketch.com -->
    <title>072F3C08-87AD-411D-AE40-28409C2DF22B</title>
    <desc>Created with sketchtool.</desc>
    <g id="desktop" stroke="none" stroke-width="1" fill="none" fill-rule="evenodd">
        <g id="иконки_меню_комнаты" transform="translate(-1282.000000, -140.000000)" fill="#7EDE44" fill-rule="nonzero" stroke="#7EDE44">
            <g id="Group-16-Copy-9" transform="translate(1282.000000, 140.000000)">
                <g id="noun_Coat-hanger_315942" transform="translate(21.000000, 2.000000)">
                    <g id="Group">
                        <path d="M0.196474428,1.32967806 C0.196474428,0.749779075 0.666575441,0.279678062 1.24647443,0.279678062 L33.9993688,0.279678062 C34.5792678,0.279678062 35.0493688,0.749779075 35.0493688,1.32967806 L35.0493688,7.24195155 C35.0493688,7.82185053 34.5792678,8.29195155 33.9993688,8.29195155 L14.1812006,8.24195155 L14.1324863,9.3458413 L16.7416342,9.41295536 C17.1266291,9.42285843 17.4753076,9.64273296 17.6501669,9.98587051 L26.004984,26.3810586 C26.0802264,26.5287114 26.1194515,26.6920772 26.1194515,26.8577962 C26.1194515,27.4376952 25.6493505,27.9077962 25.0694515,27.9077962 L21.2109031,27.9077962 C20.6862326,27.9077962 20.2609031,28.3331257 20.2609031,28.8577962 L20.2609031,42.4350847 C20.2609031,43.0149836 19.7908021,43.4850847 19.2109031,43.4850847 L8.47639099,43.4850847 C7.89649201,43.4850847 7.42639099,43.0149836 7.42639099,42.4350847 L7.42639099,28.8577962 C7.42639099,28.3331257 7.00106151,27.9077962 6.47639099,27.9077962 L2.99318711,27.9077962 C2.83444233,27.9077962 2.6777638,27.8718022 2.53493509,27.8025211 C2.01317795,27.5494355 1.79537664,26.9213014 2.04846224,26.3995442 L10.0335718,9.93757275 C10.2091308,9.57564317 10.5760356,9.34582476 10.9782967,9.34582476 L13.177461,9.39582476 L13.227461,8.29195155 L1.24647443,8.29195155 C0.666575441,8.29195155 0.196474428,7.82185053 0.196474428,7.24195155 L0.196474428,1.32967806 Z M8.43009844,27.4553037 L8.38013057,42.3960505 L13.4239354,42.4460505 L13.438524,13.3048411 L10.8076456,10.5716388 L2.79337686,26.818762 L7.51239839,26.8495238 L9.23172775,22.7250042 C9.33667655,22.4732413 9.62445612,22.3525456 9.87759756,22.4541243 C10.1303475,22.5555459 10.2536657,22.8421134 10.1535495,23.0953833 L8.43009844,27.4553037 Z M25.140807,26.9011816 L16.8778307,10.7498362 L14.3455168,13.269542 L14.2955168,42.47847 L19.1750054,42.52847 L19.1790664,27.5478567 L17.2998497,23.1742039 C17.2975674,23.1688325 17.2975674,23.1688325 17.2953721,23.1634249 C17.1962284,22.9163517 17.316149,22.6356875 17.5632221,22.5365438 C17.8177875,22.4343937 18.1076501,22.5508011 18.2208559,22.8006462 L20.0465868,26.9011816 L25.140807,26.9011816 Z M15.9046677,10.4305754 L13.802568,10.3524394 L11.866184,10.2671403 L13.9314728,12.4100477 L15.9046677,10.4305754 Z M34.0956293,7.28533688 L34.1277874,7.33533688 L34.1777874,1.28629273 L1.200214,1.23629273 L1.150214,7.28533688 L13.0953028,7.33533688 L13.1098914,5.88708474 C12.9042518,5.68079093 12.7666703,5.4277557 12.7666703,5.19242947 C12.7666703,4.67033363 13.117653,4.31823432 13.6382517,4.31823432 C14.1322672,4.31823432 14.5098331,4.72405616 14.5098331,5.19242947 C14.5098331,5.48375862 14.4215942,5.63129135 14.1812006,5.8517856 L14.1312006,7.28533688 L34.0956293,7.28533688 Z" id="Shape" stroke-width="0.1"></path>
                        <ellipse id="Oval" stroke-width="0.2" cx="5.58675371" cy="5.19242947" rx="1" ry="1"></ellipse>
                        <ellipse id="Oval" stroke-width="0.2" cx="29.9877221" cy="5.19242947" rx="1" ry="1"></ellipse>
                        <ellipse id="Oval" stroke-width="0.2" cx="21.854066" cy="5.19242947" rx="1" ry="1"></ellipse>
                    </g>
                </g>
            </g>
        </g>
    </g>
</svg>